"","Run","SampleName","treatment","Treatment.Time","File","Curated_GSE_","Curated_group","Curated_Treatment","Curated_Time","Curated_Stress","Curated_Control","Curated_TimeSeries","GSM","ID","Curated_PRJ"
"13","SRR3418016","GSM2130998","EtOH mock treatment"," 1 hours","SRR3418016.sra","GSE80565","-","EtOH mock treatment",1,"Hormone","C",TRUE,"GSM2130998","SRR3418016","PRJNA319318"
"15","SRR3418002","GSM2130984","EtOH mock treatment"," 1 hours","SRR3418002.sra","GSE80565","-","EtOH mock treatment",1,"Hormone","C",TRUE,"GSM2130984","SRR3418002","PRJNA319318"
"27","SRR3418015","GSM2130997","10 uM abscisic acid"," 1 hours","SRR3418015.sra","GSE80565","-","10 uM abscisic acid",1,"Hormone","T",TRUE,"GSM2130997","SRR3418015","PRJNA319318"
"28","SRR3418001","GSM2130983","10 uM abscisic acid"," 1 hours","SRR3418001.sra","GSE80565","-","10 uM abscisic acid",1,"Hormone","T",TRUE,"GSM2130983","SRR3418001","PRJNA319318"
"11","SRR3418018","GSM2131000","EtOH mock treatment"," 4 hours","SRR3418018.sra","GSE80565","-","EtOH mock treatment",4,"Hormone","C",TRUE,"GSM2131000","SRR3418018","PRJNA319318"
"12","SRR3418004","GSM2130986","EtOH mock treatment"," 4 hours","SRR3418004.sra","GSE80565","-","EtOH mock treatment",4,"Hormone","C",TRUE,"GSM2130986","SRR3418004","PRJNA319318"
"25","SRR3418017","GSM2130999","10 uM abscisic acid"," 4 hours","SRR3418017.sra","GSE80565","-","10 uM abscisic acid",4,"Hormone","T",TRUE,"GSM2130999","SRR3418017","PRJNA319318"
"26","SRR3418003","GSM2130985","10 uM abscisic acid"," 4 hours","SRR3418003.sra","GSE80565","-","10 uM abscisic acid",4,"Hormone","T",TRUE,"GSM2130985","SRR3418003","PRJNA319318"
"9","SRR3418020","GSM2131002","EtOH mock treatment"," 8 hours","SRR3418020.sra","GSE80565","-","EtOH mock treatment",8,"Hormone","C",TRUE,"GSM2131002","SRR3418020","PRJNA319318"
"10","SRR3418006","GSM2130988","EtOH mock treatment"," 8 hours","SRR3418006.sra","GSE80565","-","EtOH mock treatment",8,"Hormone","C",TRUE,"GSM2130988","SRR3418006","PRJNA319318"
"23","SRR3418019","GSM2131001","10 uM abscisic acid"," 8 hours","SRR3418019.sra","GSE80565","-","10 uM abscisic acid",8,"Hormone","T",TRUE,"GSM2131001","SRR3418019","PRJNA319318"
"24","SRR3418005","GSM2130987","10 uM abscisic acid"," 8 hours","SRR3418005.sra","GSE80565","-","10 uM abscisic acid",8,"Hormone","T",TRUE,"GSM2130987","SRR3418005","PRJNA319318"
"7","SRR3418022","GSM2131004","EtOH mock treatment"," 12 hours","SRR3418022.sra","GSE80565","-","EtOH mock treatment",12,"Hormone","C",TRUE,"GSM2131004","SRR3418022","PRJNA319318"
"8","SRR3418008","GSM2130990","EtOH mock treatment"," 12 hours","SRR3418008.sra","GSE80565","-","EtOH mock treatment",12,"Hormone","C",TRUE,"GSM2130990","SRR3418008","PRJNA319318"
"21","SRR3418021","GSM2131003","10 uM abscisic acid"," 12 hours","SRR3418021.sra","GSE80565","-","10 uM abscisic acid",12,"Hormone","T",TRUE,"GSM2131003","SRR3418021","PRJNA319318"
"22","SRR3418007","GSM2130989","10 uM abscisic acid"," 12 hours","SRR3418007.sra","GSE80565","-","10 uM abscisic acid",12,"Hormone","T",TRUE,"GSM2130989","SRR3418007","PRJNA319318"
"5","SRR3418024","GSM2131006","EtOH mock treatment"," 24 hours","SRR3418024.sra","GSE80565","-","EtOH mock treatment",24,"Hormone","C",TRUE,"GSM2131006","SRR3418024","PRJNA319318"
"6","SRR3418010","GSM2130992","EtOH mock treatment"," 24 hours","SRR3418010.sra","GSE80565","-","EtOH mock treatment",24,"Hormone","C",TRUE,"GSM2130992","SRR3418010","PRJNA319318"
"19","SRR3418023","GSM2131005","10 uM abscisic acid"," 24 hours","SRR3418023.sra","GSE80565","-","10 uM abscisic acid",24,"Hormone","T",TRUE,"GSM2131005","SRR3418023","PRJNA319318"
"20","SRR3418009","GSM2130991","10 uM abscisic acid"," 24 hours","SRR3418009.sra","GSE80565","-","10 uM abscisic acid",24,"Hormone","T",TRUE,"GSM2130991","SRR3418009","PRJNA319318"
"3","SRR3418026","GSM2131008","EtOH mock treatment"," 36 hours","SRR3418026.sra","GSE80565","-","EtOH mock treatment",36,"Hormone","C",TRUE,"GSM2131008","SRR3418026","PRJNA319318"
"4","SRR3418012","GSM2130994","EtOH mock treatment"," 36 hours","SRR3418012.sra","GSE80565","-","EtOH mock treatment",36,"Hormone","C",TRUE,"GSM2130994","SRR3418012","PRJNA319318"
"17","SRR3418025","GSM2131007","10 uM abscisic acid"," 36 hours","SRR3418025.sra","GSE80565","-","10 uM abscisic acid",36,"Hormone","T",TRUE,"GSM2131007","SRR3418025","PRJNA319318"
"18","SRR3418011","GSM2130993","10 uM abscisic acid"," 36 hours","SRR3418011.sra","GSE80565","-","10 uM abscisic acid",36,"Hormone","T",TRUE,"GSM2130993","SRR3418011","PRJNA319318"
"1","SRR3418028","GSM2131010","EtOH mock treatment"," 60 hours","SRR3418028.sra","GSE80565","-","EtOH mock treatment",60,"Hormone","C",TRUE,"GSM2131010","SRR3418028","PRJNA319318"
"2","SRR3418014","GSM2130996","EtOH mock treatment"," 60 hours","SRR3418014.sra","GSE80565","-","EtOH mock treatment",60,"Hormone","C",TRUE,"GSM2130996","SRR3418014","PRJNA319318"
"14","SRR3418027","GSM2131009","10 uM abscisic acid"," 60 hours","SRR3418027.sra","GSE80565","-","10 uM abscisic acid",60,"Hormone","T",TRUE,"GSM2131009","SRR3418027","PRJNA319318"
"16","SRR3418013","GSM2130995","10 uM abscisic acid"," 60 hours","SRR3418013.sra","GSE80565","-","10 uM abscisic acid",60,"Hormone","T",TRUE,"GSM2130995","SRR3418013","PRJNA319318"
