Run;SampleName;duration_of_treatment;light_treatment;organ;SampleID;File
SRR3480142;GSM2144569;0 min;high R/FR;cotyledon;TP0_01;SRR3480142.sra
SRR3480144;GSM2144571;0 min;high R/FR;cotyledon;TP0_03;SRR3480144.sra
SRR3480143;GSM2144570;0 min;high R/FR;hypocotyl;TP0_02;SRR3480143.sra
SRR3480145;GSM2144572;0 min;high R/FR;hypocotyl;TP0_04;SRR3480145.sra
SRR3480146;GSM2144572;0 min;high R/FR;hypocotyl;TP0_04;SRR3480146.sra
SRR3480147;GSM2144573;15 min;high R/FR;cotyledon;TP15_05;SRR3480147.sra
SRR3480148;GSM2144574;15 min;high R/FR;hypocotyl;TP15_06;SRR3480148.sra
SRR3480149;GSM2144574;15 min;high R/FR;hypocotyl;TP15_06;SRR3480149.sra
SRR3480150;GSM2144575;15 min;high R/FR;cotyledon;TP15_07;SRR3480150.sra
SRR3480151;GSM2144576;15 min;high R/FR;hypocotyl;TP15_08;SRR3480151.sra
SRR3480152;GSM2144576;15 min;high R/FR;hypocotyl;TP15_08;SRR3480152.sra
SRR3480153;GSM2144577;15 min;low R/FR;cotyledon;TP15_11;SRR3480153.sra
SRR3480154;GSM2144578;15 min;low R/FR;hypocotyl;TP15_12;SRR3480154.sra
SRR3480155;GSM2144579;15 min;low R/FR;cotyledon;TP15_41;SRR3480155.sra
SRR3480156;GSM2144580;15 min;low R/FR;hypocotyl;TP15_42;SRR3480156.sra
SRR3480157;GSM2144581;45 min;high R/FR;cotyledon;TP45_13;SRR3480157.sra
SRR3480158;GSM2144581;45 min;high R/FR;cotyledon;TP45_13;SRR3480158.sra
SRR3480159;GSM2144582;45 min;high R/FR;hypocotyl;TP45_14;SRR3480159.sra
SRR3480160;GSM2144582;45 min;high R/FR;hypocotyl;TP45_14;SRR3480160.sra
SRR3480161;GSM2144583;45 min;high R/FR;cotyledon;TP45_15;SRR3480161.sra
SRR3480162;GSM2144584;45 min;high R/FR;hypocotyl;TP45_16;SRR3480162.sra
SRR3480163;GSM2144584;45 min;high R/FR;hypocotyl;TP45_16;SRR3480163.sra
SRR3480164;GSM2144585;45 min;low R/FR;cotyledon;TP45_17;SRR3480164.sra
SRR3480165;GSM2144585;45 min;low R/FR;cotyledon;TP45_17;SRR3480165.sra
SRR3480166;GSM2144586;45 min;low R/FR;hypocotyl;TP45_18;SRR3480166.sra
SRR3480167;GSM2144586;45 min;low R/FR;hypocotyl;TP45_18;SRR3480167.sra
SRR3480168;GSM2144587;45 min;low R/FR;cotyledon;TP45_19;SRR3480168.sra
SRR3480169;GSM2144588;45 min;low R/FR;hypocotyl;TP45_20;SRR3480169.sra
SRR3480170;GSM2144588;45 min;low R/FR;hypocotyl;TP45_20;SRR3480170.sra
SRR3480171;GSM2144589;90 min;high R/FR;cotyledon;TP90_21;SRR3480171.sra
SRR3480172;GSM2144589;90 min;high R/FR;cotyledon;TP90_21;SRR3480172.sra
SRR3480173;GSM2144590;90 min;high R/FR;hypocotyl;TP90_22;SRR3480173.sra
SRR3480174;GSM2144590;90 min;high R/FR;hypocotyl;TP90_22;SRR3480174.sra
SRR3480175;GSM2144591;90 min;high R/FR;cotyledon;TP90_23;SRR3480175.sra
SRR3480176;GSM2144591;90 min;high R/FR;cotyledon;TP90_23;SRR3480176.sra
SRR3480177;GSM2144592;90 min;high R/FR;hypocotyl;TP90_24;SRR3480177.sra
SRR3480178;GSM2144592;90 min;high R/FR;hypocotyl;TP90_24;SRR3480178.sra
SRR3480179;GSM2144593;90 min;low R/FR;cotyledon;TP90_25;SRR3480179.sra
SRR3480180;GSM2144594;90 min;low R/FR;hypocotyl;TP90_26;SRR3480180.sra
SRR3480181;GSM2144594;90 min;low R/FR;hypocotyl;TP90_26;SRR3480181.sra
SRR3480182;GSM2144595;90 min;low R/FR;cotyledon;TP90_27;SRR3480182.sra
SRR3480183;GSM2144595;90 min;low R/FR;cotyledon;TP90_27;SRR3480183.sra
SRR3480184;GSM2144596;90 min;low R/FR;hypocotyl;TP90_28;SRR3480184.sra
SRR3480185;GSM2144596;90 min;low R/FR;hypocotyl;TP90_28;SRR3480185.sra
SRR3480186;GSM2144597;180 min;high R/FR;cotyledon;TP180_29;SRR3480186.sra
SRR3480187;GSM2144597;180 min;high R/FR;cotyledon;TP180_29;SRR3480187.sra
SRR3480188;GSM2144598;180 min;high R/FR;hypocotyl;TP180_52;SRR3480188.sra
SRR3480189;GSM2144599;180 min;high R/FR;cotyledon;TP180_31;SRR3480189.sra
SRR3480190;GSM2144600;180 min;high R/FR;hypocotyl;TP180_32;SRR3480190.sra
SRR3480191;GSM2144600;180 min;high R/FR;hypocotyl;TP180_32;SRR3480191.sra
SRR3480192;GSM2144601;180 min;low R/FR;cotyledon;TP180_33;SRR3480192.sra
SRR3480193;GSM2144601;180 min;low R/FR;cotyledon;TP180_33;SRR3480193.sra
SRR3480194;GSM2144602;180 min;low R/FR;hypocotyl;TP180_34;SRR3480194.sra
SRR3480195;GSM2144602;180 min;low R/FR;hypocotyl;TP180_34;SRR3480195.sra
SRR3480196;GSM2144603;180 min;low R/FR;cotyledon;TP180_35;SRR3480196.sra
SRR3480197;GSM2144603;180 min;low R/FR;cotyledon;TP180_35;SRR3480197.sra
SRR3480198;GSM2144604;180 min;low R/FR;hypocotyl;TP180_54;SRR3480198.sra
